{
	"slideNumber": "c/t",
	"center": false,
	"controlsTutorial": false,
	"controlsLayout": "edges",
	"embedded": true,
	"progress": false,
	"transition": "fade",
	"history": false,
	"hash": true,
	"pdfMaxPagesPerSlide": 1,
	"display": "block"
}
